<svg xmlns="http://www.w3.org/2000/svg" width="83" height="78" viewBox="0 0 83 78">
    <g fill="none" fill-rule="evenodd">
        <path fill="#072746" fill-rule="nonzero" d="M17.376 60.77a33.662 33.662 0 0 1-7.997-13.103 3.4 3.4 0 0 1 .327-2.77A3.44 3.44 0 0 1 12 43.291a3.468 3.468 0 0 1 3.981 2.318 26.782 26.782 0 0 0 6.306 10.307 3.428 3.428 0 0 1 .228 4.586 3.452 3.452 0 0 1-5.14.269zm48.248 0a33.67 33.67 0 0 0 7.996-13.103 3.4 3.4 0 0 0-.324-2.767 3.44 3.44 0 0 0-2.288-1.61 3.468 3.468 0 0 0-3.981 2.32 26.782 26.782 0 0 1-6.306 10.306 3.42 3.42 0 0 0-.004 4.859 3.473 3.473 0 0 0 4.89.004l.017-.008zM51.55 9.047a3.416 3.416 0 0 0-.21-2.793 3.454 3.454 0 0 0-2.233-1.71 34.291 34.291 0 0 0-15.215 0 3.445 3.445 0 0 0-2.612 4.125c.425 1.855 2.283 3.017 4.15 2.595a27.292 27.292 0 0 1 12.097 0 3.444 3.444 0 0 0 4.023-2.217z"/>
        <path fill="#399DCB" d="M59.022 9.205a9.222 9.222 0 1 0 18.444.034 9.222 9.222 0 0 0-18.444-.034zM73.373 20.811l-4.043 4.906c-.264.32-.663.508-1.086.508-.422 0-.822-.187-1.085-.508l-4.043-4.897a1.483 1.483 0 0 0-1.55-.463c-4.793 1.38-8.08 5.654-8.077 10.506v2.535c0 1.419 1.185 2.569 2.647 2.569h24.217c1.462 0 2.647-1.15 2.647-2.569v-2.544c.003-4.851-3.284-9.126-8.078-10.505a1.483 1.483 0 0 0-1.55.462zM14.756 18.444a9.222 9.222 0 1 0 0-18.444 9.222 9.222 0 0 0 0 18.444zM2.647 35.967h24.217c1.462 0 2.647-1.15 2.647-2.568v-2.55c.003-4.849-3.284-9.122-8.078-10.5a1.483 1.483 0 0 0-1.549.462l-4.043 4.903c-.263.32-.663.508-1.085.508-.423 0-.822-.187-1.086-.508L9.627 20.82a1.483 1.483 0 0 0-1.55-.462C3.288 21.735.002 26.003 0 30.849v2.542c0 .681.279 1.334.775 1.815a2.69 2.69 0 0 0 1.872.752v.009z"/>
        <path fill="#FFD05B" d="M41.5 41.526a9.222 9.222 0 0 0-8.522 5.69 9.2 9.2 0 0 0 2.01 10.04 9.231 9.231 0 0 0 10.06 1.98 9.21 9.21 0 0 0 5.674-8.527 9.203 9.203 0 0 0-2.7-6.512A9.229 9.229 0 0 0 41.5 41.5v.026zM26.744 72.365v2.555c.014 1.41 1.195 2.547 2.647 2.547h24.218c1.462 0 2.647-1.152 2.647-2.572v-2.53c.002-4.856-3.284-9.135-8.076-10.516a1.48 1.48 0 0 0-1.549.463l-4.042 4.903a1.403 1.403 0 0 1-1.085.508c-.422 0-.822-.187-1.085-.508l-4.025-4.895a1.48 1.48 0 0 0-1.548-.463c-4.8 1.37-8.097 5.648-8.102 10.508z"/>
    </g>
</svg>
