<?xml version="1.0" encoding="UTF-8" standalone="no"?>
<svg width="64px" height="67px" viewBox="0 0 64 67" version="1.1" xmlns="http://www.w3.org/2000/svg" xmlns:xlink="http://www.w3.org/1999/xlink">
    <!-- Generator: Sketch 44.1 (41455) - http://www.bohemiancoding.com/sketch -->
    <title>noun_973928_cc</title>
    <desc>Created with Sketch.</desc>
    <defs></defs>
    <g id="Page-1" stroke="none" stroke-width="1" fill="none" fill-rule="evenodd">
        <g id="mycard-Dashboard" transform="translate(-768.000000, -231.000000)" fill-rule="nonzero" fill="#006095">
            <g id="noun_973928_cc" transform="translate(768.000000, 231.000000)">
                <path d="M63.2888889,59.6148148 L63.2888889,24.2962963 L32,0 L0.711111111,24.2962963 L0.711111111,59.6148148 C0.711111111,63.2888889 3.67407407,66.3703704 7.46666667,66.3703704 L56.6518519,66.3703704 C60.3259259,66.3703704 63.2888889,63.4074074 63.2888889,59.6148148 L63.2888889,59.6148148 C63.2888889,59.6148148 63.2888889,59.6148148 63.2888889,59.6148148 Z M43.3777778,45.6296296 L59.7333333,33.6592593 L59.7333333,56.4148148 L43.3777778,45.6296296 Z M32,4.5037037 L59.7333333,26.0740741 L59.7333333,29.2740741 L40.2962963,43.4962963 C40.2962963,43.4962963 40.2962963,43.4962963 40.1777778,43.4962963 L32,38.162963 L24.8888889,42.7851852 L4.26666667,29.1555556 L4.26666667,26.0740741 L32,4.5037037 Z M4.26666667,33.4222222 L21.6888889,44.9185185 L4.26666667,56.4148148 L4.26666667,33.4222222 L4.26666667,33.4222222 Z M56.6518519,62.8148148 L7.34814815,62.8148148 C5.92592593,62.8148148 4.74074074,61.8666667 4.38518519,60.562963 L32,42.4296296 L59.6148148,60.562963 C59.2592593,61.8666667 58.0740741,62.8148148 56.6518519,62.8148148 Z" id="Shape"></path>
            </g>
        </g>
    </g>
</svg>