<svg xmlns="http://www.w3.org/2000/svg" width="35" height="68" viewBox="0 0 35 68">
    <path fill="#006095" fill-rule="nonzero" d="M29.142 0H5.3C2.373 0 0 2.385 0 5.328v57.343C0 65.614 2.373 68 5.299 68h23.843c2.926 0 5.299-2.386 5.299-5.33V5.329C34.441 2.385 32.068 0 29.142 0zM14.615 5.654h5.211c.39 0 .706.318.706.71 0 .392-.316.71-.706.71h-5.211a.707.707 0 0 1-.706-.71c0-.392.316-.71.706-.71zm-3.038-.272c.465 0 .842.379.842.846a.844.844 0 0 1-.842.846.844.844 0 0 1-.84-.846c0-.467.377-.846.84-.846zm5.644 59.743a3.32 3.32 0 0 1-3.312-3.33 3.32 3.32 0 0 1 3.312-3.33 3.32 3.32 0 0 1 3.31 3.33 3.32 3.32 0 0 1-3.31 3.33zm14.57-9.032H2.65V11.907H31.79v44.186z"/>
</svg>
