// Jest Snapshot v1, https://goo.gl/fbAQLP

exports[`renders correctly 1`] = `
<View
  style={
    Object {
      "alignItems": "center",
      "backgroundColor": "#006098",
      "flex": 1,
      "padding": 20,
      "paddingTop": 100,
    }
  }
>
  <View
    style={
      Object {
        "position": "absolute",
      }
    }
  >
    <Image
      source={1}
      style={
        Object {
          "flex": 1,
          "resizeMode": "cover",
        }
      }
    />
  </View>
  <Image
    source={1}
    style={
      Object {
        "marginBottom": 30,
      }
    }
  />
  <TextInput
    autoCapitalize="none"
    keyboardType="email-address"
    onChangeText={[Function]}
    placeholder="Vistaprint login email"
    style={
      Object {
        "backgroundColor": "rgba(255, 255, 255, 0.23)",
        "borderColor": "gray",
        "borderRadius": 4,
        "borderWidth": 1,
        "color": "#ffffff",
        "height": 40,
        "marginTop": 7,
        "padding": 10,
        "width": "100%",
      }
    }
    underlineColorAndroid="rgba(0,0,0,0)"
    value="tbindustrialsupply@gmail.com"
  />
  <TextInput
    autoCapitalize="none"
    editable={false}
    onChangeText={[Function]}
    placeholder="Password"
    secureTextEntry={true}
    style={
      Object {
        "backgroundColor": "rgba(255, 255, 255, 0.23)",
        "borderColor": "gray",
        "borderRadius": 4,
        "borderWidth": 1,
        "color": "#ffffff",
        "height": 40,
        "marginTop": 7,
        "padding": 10,
        "width": "100%",
      }
    }
    underlineColorAndroid="rgba(0,0,0,0)"
    value=""
  />
  <View
    accessibilityComponentType="button"
    accessibilityLabel={undefined}
    accessibilityTraits="button"
    accessible={true}
    hitSlop={undefined}
    isTVSelectable={true}
    onLayout={undefined}
    onResponderGrant={[Function]}
    onResponderMove={[Function]}
    onResponderRelease={[Function]}
    onResponderTerminate={[Function]}
    onResponderTerminationRequest={[Function]}
    onStartShouldSetResponder={[Function]}
    style={
      Object {
        "backgroundColor": "#1ea7e2",
        "borderRadius": 4,
        "height": 50,
        "marginTop": 37,
        "opacity": 1,
        "overflow": "hidden",
        "padding": 12,
        "width": "100%",
      }
    }
    testID={undefined}
    tvParallaxProperties={undefined}
  >
    <Text
      accessible={true}
      allowFontScaling={true}
      ellipsizeMode="tail"
      style={
        Array [
          Object {
            "color": "#007aff",
            "fontSize": 17,
            "fontWeight": "500",
            "textAlign": "center",
          },
          null,
          Object {
            "color": "white",
            "fontSize": 16,
          },
          null,
        ]
      }
    >
      IMPORT MY CARD
    </Text>
  </View>
  <Text
    accessible={true}
    allowFontScaling={true}
    ellipsizeMode="tail"
  />
  <Text
    accessible={true}
    allowFontScaling={true}
    ellipsizeMode="tail"
    style={
      Object {
        "color": "#FFFFFF",
        "marginTop": 20,
      }
    }
  >
    Forgot your password?
  </Text>
  <Text
    accessible={true}
    allowFontScaling={true}
    ellipsizeMode="tail"
  >
    $SERVER_ROOT+'/api/v1
  </Text>
</View>
`;
